Time: 7.041585445404053 | Batt: 65 | Roll: 1.6943930589532765 | Pitch: -0.12327348703543706 | Yaw: -6.299268630416571 | Altitude: 0.8875585198402405.
Time: 7.546025276184082 | Batt: 65 | Roll: 0.9615290325674926 | Pitch: -0.034452018287118455 | Yaw: -6.482216919314609 | Altitude: 0.8871296048164368.
Time: 8.051446199417114 | Batt: 65 | Roll: 0.6608574276669007 | Pitch: 1.82114305185641 | Yaw: -6.357217619354541 | Altitude: 0.8868799805641174.
Time: 8.556223154067993 | Batt: 65 | Roll: 0.5922426572739231 | Pitch: 1.9181073183101705 | Yaw: -5.743496172252967 | Altitude: 0.882343590259552.
Time: 9.060978412628174 | Batt: 65 | Roll: 0.45756357107917556 | Pitch: 1.9737621217726486 | Yaw: -4.6032440162097386 | Altitude: 0.8822317719459534.
Time: 9.565661907196045 | Batt: 64 | Roll: 0.30369482543399695 | Pitch: 2.096543420685692 | Yaw: -3.5816269323388634 | Altitude: 0.8830227851867676.
